Clase 2
…
    filter, lag

The following objects are masked from 'package:base':

    intersect, setdiff, setequal, union

# Ahora seleccionamos las dos columnas que queremos observar

excel_resumido <- excel_dengue %>%
select(`Clasificación manual del caso`,`Apellido Ciudadano`)

excel_resumido

# A tibble: 6,481 × 2
   `Clasificación manual del caso`                   `Apellido Ciudadano`
   <chr>                                             <chr>               
 1 Caso sospechoso no conclusivo                     GARCIA GAVELLO      
 2 Caso confirmado DEN-2                             SCAREL              
 3 Caso de Dengue en brote con laboratorio (+)       SEGOVIA             
 4 Caso probable                                     ABALOS              
 5 Caso de Dengue en brote con laboratorio (+)       PIRIZ               
 6 Caso probable                                     BORJA BALLON        
 7 Caso confirmado por nexo epidemiológico autóctono AGUIRRE             
 8 Caso probable                                     LOVEY               
 9 Caso sospechoso                                   FERNANDEZ           
10 Caso confirmado por nexo epidemiológico autóctono OBREGON             
# ℹ 6,471 more rows
…
csv <- read_csv("reportes/Reporte dengue & chiku copia.csv")

Rows: 6481 Columns: 21
── Column specification ────────────────────────────────────────────────────────
Delimiter: ","
chr (19): Apellido Ciudadano, Calle Domicilio, Departamento Residencia, Fech...
dbl  (2): Edad Actual, Nro Doc

ℹ Use `spec()` to retrieve the full column specification for this data.
ℹ Specify the column types or set `show_col_types = FALSE` to quiet this message.

csv

# A tibble: 6,481 × 21
   `Apellido Ciudadano` `Calle Domicilio`   Departamento Residen…¹ `Edad Actual`
   <chr>                <chr>               <chr>                          <dbl>
 1 GARCIA GAVELLO       CEIBO               San Fernando                      38
 2 SCAREL               VENDIMIADORES       Capital                           68
 3 SEGOVIA              ISLAS MALVINAS      25 de Mayo                        19
 4 ABALOS               AV. ARRIBALZAGA     San Fernando                      33
 5 PIRIZ                LOTE                Mayor Luis J. Fontana             29
 6 BORJA BALLON         PASAJE INGENIERO F… San Fernando                      35
 7 AGUIRRE              PLANTA URBANA       General Güemes                    33
 8 LOVEY                LAS TRES BOCAS      San Fernando                      14
 9 FERNANDEZ            BARRIO MATADERO     Sargento Cabral                   16
10 OBREGON              BONEO               General Güemes                    45
# ℹ 6,471 more rows
# ℹ abbreviated name: ¹​`Departamento Residencia`
# ℹ 17 more variables: `Fecha Nacimiento` <chr>, `Localidad Residencia` <chr>,
#   `Información de contacto` <chr>, `Nombre Ciudadano` <chr>, `Nro Doc` <dbl>,
#   `Numero Domicilio` <chr>, `Provincia Residencia` <chr>, `Sexo Legal` <chr>,
#   `Clasificación manual del caso` <chr>, `Establecimiento de Carga` <chr>,
#   Evento <chr>, `Fecha Apertura` <chr>, …
…
