Clase 2.1
…
year(Fecha de toma de muestra) == 2024:

La función year() se utiliza para extraer el año de una columna de tipo fecha. Aquí se está extrayendo el año de la columna Fecha de toma de muestra y se está filtrando para que solo se incluyan las filas donde el año es igual a 2024. Nota que para usar year(), necesitas tener el paquete lubridate cargado.

Ahora si con nuestro data frame vamos a contruir un ID con numero de documento y fecha de toma de muestra para que tengan valores únicos:

# Crear un ID único de caso

dengue_id <- dengue_lim2 %>%
  mutate(id_caso = paste(`Nro Doc`, `Fecha de toma de muestra`, sep = "_")) %>% 
  mutate(across(where(is.character), ~ na_if(., "*SIN DATO* (*SIN DATO*)")))

dengue_id

# A tibble: 4,695 × 28
   `Apellido Ciudadano` `Calle Domicilio`   Departamento Residen…¹ `Edad Actual`
   <chr>                <chr>               <chr>                          <dbl>
 1 GARCIA GAVELLO       CEIBO               San Fernando                      38
 2 SEGOVIA              ISLAS MALVINAS      25 de Mayo                        19
 3 ABALOS               AV. ARRIBALZAGA     San Fernando                      33
 4 PIRIZ                LOTE                Mayor Luis J. Fontana             29
 5 BORJA BALLON         PASAJE INGENIERO F… San Fernando                      35
 6 LOBOS                JUAN DOMINGO PERON  San Fernando                      41
 7 ALEGRE               SANTA MARIA DE ORO  San Fernando                      24
 8 SANCHEZ              ING MIGUEL CANE     San Fernando                      69
 9 AGUILAR              PJE SARMIENTO       San Fernando                      44
10 ACOSTA               FORTIN LOMA NEGRA   San Fernando                      40
# ℹ 4,685 more rows
# ℹ abbreviated name: ¹​`Departamento Residencia`
# ℹ 24 more variables: `Fecha Nacimiento` <date>, `Localidad Residencia` <chr>,
#   `Información de contacto` <chr>, `Nombre Ciudadano` <chr>, `Nro Doc` <dbl>,
#   `Numero Domicilio` <chr>, `Provincia Residencia` <chr>, `Sexo Legal` <chr>,
#   `Clasificación manual del caso` <chr>, `Establecimiento de Carga` <chr>,
#   Evento <chr>, `Fecha Apertura` <date>, …
…
