IRA
…
# Cambia 2024 por el año que quieras filtrar

Ahora tenemos una nueva tabla con menos registros IRA_casos_chaco2024. En esta tabla vamos a crear nuestro ID combinando dos columnas: Nro Doc y Fecha de toma de muestra.

Tenemos que hacer esto porque una persona puede aportar mas de 1 caso en el período y por evento a la persona se le pueden tomar mas de una muestra.

# para crear una columna ID y Crear un ID único de caso

IRA_id_chaco2024 <- IRA_casos_chaco2024 %>%
  mutate(id_caso = paste(`Nro Doc`, `Fecha de toma de muestra`, sep = "_")) %>% 
  mutate(across(where(is.character), ~ na_if(., "*SIN DATO* (*SIN DATO*)")))

IRA_id_chaco2024

# A tibble: 674 × 33
   `Fecha Apertura`    `Nro Doc` `Apellido Ciudadano` `Nombre Ciudadano`        
   <dttm>                  <dbl> <chr>                <chr>                     
 1 2024-03-17 00:00:00  37584870 FRESCHI AGUIRRE      MARIANA ELIZABETH         
 2 2024-03-15 00:00:00  32089335 ESCALADA             ESTELA BEATRIZ            
 3 2024-03-20 00:00:00  26267300 ROMERO               VIVIANA NOEMI             
 4 2024-03-25 00:00:00 901807788 FERNANDEZ            MATEO AGUSTIN             
 5 2024-03-18 00:00:00  51184164 ROJAS                DALMA AYELEN              
 6 2024-03-15 00:00:00  12749400 ALBORNOZ             ETELVINA                  
 7 2024-03-27 00:00:00  12470121 VALIENTE             WILMA YOLANDA             
 8 2024-03-25 00:00:00  17749184 PALAVECINO           RAMON                     
 9 2024-03-08 00:00:00  28496868 NUÑEZ                ADRIANA MARIA DE LOS ANGE…
10 2024-03-05 00:00:00  39072663 CHAPUR               GUSTAVO IGNACIO           
# ℹ 664 more rows
# ℹ 29 more variables: `Fecha Nacimiento` <dttm>, `Sexo Legal` <chr>,
#   `Edad Actual` <dbl>, `Grupo etario diagnóstico` <chr>,
#   `Provincia Carga` <chr>, `Departamento Carga` <chr>,
#   `Localidad Carga` <chr>, `Provincia Residencia` <chr>,
#   `Departamento Residencia` <chr>, `Localidad Residencia` <chr>,
#   `Fecha de toma de muestra` <dttm>, `Fecha estudio` <dttm>, …
…
