Clase_3
…
library(janitor)

Adjuntando el paquete: 'janitor'

The following objects are masked from 'package:stats':

    chisq.test, fisher.test

# Identificar filas duplicadas en todo el data frame

duplicados_j <- get_dupes(dengue_id, id_caso)
print(duplicados_j)

# A tibble: 2,924 × 25
   id_caso             dupe_count `Apellido Ciudadano` `Calle Domicilio`
   <chr>                    <int> <chr>                <chr>            
 1 36900869_2024-03-22          6 BARBOZA              AMADEO BELIGOY   
 2 36900869_2024-03-22          6 BARBOZA              AMADEO BELIGOY   
 3 36900869_2024-03-22          6 BARBOZA              AMADEO BELIGOY   
 4 36900869_2024-03-22          6 BARBOZA              AMADEO BELIGOY   
 5 36900869_2024-03-22          6 BARBOZA              AMADEO BELIGOY   
 6 36900869_2024-03-22          6 BARBOZA              AMADEO BELIGOY   
 7 39306821_2024-03-25          4 MENDOZA              PLANTA URBANA    
 8 39306821_2024-03-25          4 MENDOZA              PLANTA URBANA    
 9 39306821_2024-03-25          4 MENDOZA              PLANTA URBANA    
10 39306821_2024-03-25          4 MENDOZA              PLANTA URBANA    
# ℹ 2,914 more rows
# ℹ 21 more variables: `Departamento Residencia` <chr>, `Edad Actual` <dbl>,
#   `Fecha Nacimiento` <date>, `Localidad Residencia` <chr>,
#   `Información de contacto` <chr>, `Nombre Ciudadano` <chr>, `Nro Doc` <dbl>,
#   `Numero Domicilio` <chr>, `Provincia Residencia` <chr>, `Sexo Legal` <chr>,
#   `Clasificación manual del caso` <chr>, `Establecimiento de Carga` <chr>,
#   Evento <chr>, `Fecha Apertura` <date>, …
…
duplicados_conf <- duplicados %>% 
  filter(clasificacion_casos == "confirmado")

no_duplicados_conf <- no_duplicados %>% 
  filter(clasificacion_casos == "confirmado")

Uniremos entonces los dos marcos de datos para tener un data frame completo de datos confirmados:

# Unir los data frames duplicados y no_duplicados
datos_unidos <- bind_rows(duplicados_conf, no_duplicados_conf)

# Mostrar el resultado
print(datos_unidos)

# A tibble: 1,872 × 24
   `Apellido Ciudadano` `Calle Domicilio`   Departamento Residen…¹ `Edad Actual`
   <chr>                <chr>               <chr>                          <dbl>
 1 SEGOVIA              ISLAS MALVINAS      25 de Mayo                        19
 2 PIRIZ                LOTE                Mayor Luis J. Fontana             29
 3 LOBOS                JUAN DOMINGO PERON  San Fernando                      41
 4 ESQUEFF              MANZANA 154 PARCEL… Comandante Fernández              89
 5 DUARTE               ZORZAL              San Fernando                      73
 6 ORELLANA             EL ESPINILLO        General Güemes                    35
 7 ALEJANDRE            JUAN B.JUSTO 270    Mayor Luis J. Fontana             27
 8 GONZALEZ KRIEGEL     GERARDO VARELA      San Fernando                      57
 9 DURE GONZALEZ        MZ 41 PC 13         San Fernando                      73
10 BARBOZA              AMADEO BELIGOY      Libertad                          32
# ℹ 1,862 more rows
# ℹ abbreviated name: ¹​`Departamento Residencia`
# ℹ 20 more variables: `Fecha Nacimiento` <date>, `Localidad Residencia` <chr>,
#   `Información de contacto` <chr>, `Nombre Ciudadano` <chr>, `Nro Doc` <dbl>,
#   `Numero Domicilio` <chr>, `Provincia Residencia` <chr>, `Sexo Legal` <chr>,
#   `Clasificación manual del caso` <chr>, `Establecimiento de Carga` <chr>,
#   Evento <chr>, `Fecha Apertura` <date>, …
…
Acumulados por departamento

Identificamos entonces acumulados por departamento y por localidad:

library(stringr)

depto_acum <- dengue_regiones %>% 
  group_by(`Departamento Residencia`) %>% 
  count() %>% 
  ungroup() %>% 
   mutate(`Departamento Residencia` = str_replace(`Departamento Residencia`, "1º de Mayo", "Primero de mayo"))

depto_acum

# A tibble: 25 × 2
   `Departamento Residencia`         n
   <chr>                         <int>
 1 12 de Octubre                     3
 2 Primero de mayo                  11
 3 2 de Abril                        4
 4 25 de Mayo                       11
 5 9 de Julio                       26
 6 Almirante Brown                  20
 7 Bermejo                          36
 8 Chacabuco                         3
 9 Comandante Fernández             33
10 Fray Justo Santa María de Oro    19
# ℹ 15 more rows
…
Renombro las columnas para mi tabla (esto se puede realizar en lo propia tabla también es opcional)

dengue_final <-  dengue_join %>% 
  rename(
    `Region Sanitaria` = region_sanitaria,
    `Confirmados última semana` = Acumulados_sem,
     Localidad = `Localidad Residencia`,
     Departamento = `Departamento Residencia`) %>% 
 group_by(Departamento) %>%  # Agrupar por Departamento
  arrange(Departamento) %>% 
  ungroup()

dengue_final

# A tibble: 63 × 5
   `Region Sanitaria` Departamento   Localidad Acumulados Confirmados última s…¹
                <dbl> <chr>          <chr>          <dbl>                  <dbl>
 1                  4 12 de Octubre  GANCEDO            2                      0
 2                  4 12 de Octubre  GENERAL …          1                      0
 3                  4 2 de Abril     HERMOSO …          4                      0
 4                  2 25 de Mayo     MACHAGAI          10                      0
 5                  2 25 de Mayo     <NA>               1                      0
 6                  4 9 de Julio     LAS BREÑ…         26                      2
 7                  7 Almirante Bro… CONCEPCI…          1                      0
 8                  7 Almirante Bro… LOS FREN…          3                      0
 9                  7 Almirante Bro… PAMPA DE…         10                      1
10                  7 Almirante Bro… TACO POZO          4                      0
# ℹ 53 more rows
# ℹ abbreviated name: ¹​`Confirmados última semana`
…
En este caso, na_if() no puede reemplazar valores vacíos en una columna de tipo double (numérico) con una cadena vacía.

Si la columna Edad Actual es numérica (double), no puedes directamente usar na_if() para reemplazar cadenas vacías con NA porque na_if() espera que los dos argumentos tengan el mismo tipo

# Crear rangos de edades

edades$rangos <- cut(edades$`Edad Actual`,
                 breaks = c(0,5, 10, 20, 30, 40, 50, 60, 70, 100),
                 labels = c("0-4","5-9", "10-19", "20-29", "30-39", "40-49", "50-59", "60-69", "71+"),
                 right = FALSE)

edades

# A tibble: 1,872 × 2
   `Edad Actual` rangos
           <dbl> <fct> 
 1            19 10-19 
 2            29 20-29 
 3            41 40-49 
 4            89 71+   
 5            73 71+   
 6            35 30-39 
 7            27 20-29 
 8            57 50-59 
 9            73 71+   
10            32 30-39 
# ℹ 1,862 more rows
…
